<svg width="202" height="202" viewBox="0 0 202 202" fill="none" xmlns="http://www.w3.org/2000/svg">
<path opacity="0.2" d="M185.794 101C185.794 147.831 147.831 185.794 101 185.794C54.1693 185.794 16.2056 147.831 16.2056 101C16.2056 54.1693 54.1693 16.2055 101 16.2055C147.831 16.2055 185.794 54.1693 185.794 101Z" fill="#E6E6E6"/>
<path opacity="0.2" d="M201.414 101C201.414 156.457 156.457 201.414 101 201.414C45.5425 201.414 0.585449 156.457 0.585449 101C0.585449 45.5426 45.5425 0.58551 101 0.58551C156.457 0.58551 201.414 45.5426 201.414 101Z" fill="#E6E6E6"/>
<path fill-rule="evenodd" clip-rule="evenodd" d="M136.747 54.9722C139.984 57.8719 140.258 62.8471 137.359 66.0846L93.8804 114.628L65.3425 89.8329C62.0617 86.9823 61.7129 82.0118 64.5634 78.7309C67.414 75.4501 72.3845 75.1013 75.6654 77.9519L92.5 92.5786L125.634 55.5839C128.534 52.3463 133.509 52.0725 136.747 54.9722Z" fill="#00C2AD"/>
<path d="M64.6444 128.052H60.4552V139.445H57.6373V128.052H53.5044V125.769H64.6444V128.052Z" fill="#00C2AD"/>
<path d="M68.7303 130.39C69.4504 129.526 70.3553 129.094 71.4449 129.094C73.6491 129.094 74.7668 130.375 74.7981 132.936V139.445H72.0836V133.011C72.0836 132.429 71.9583 132 71.7079 131.724C71.4574 131.442 71.041 131.302 70.4586 131.302C69.6633 131.302 69.0872 131.608 68.7303 132.222V139.445H66.0158V125.018H68.7303V130.39Z" fill="#00C2AD"/>
<path d="M82.7351 139.445C82.6099 139.201 82.5191 138.897 82.4628 138.534C81.8052 139.267 80.9505 139.633 79.8985 139.633C78.9028 139.633 78.0763 139.345 77.4188 138.769C76.7675 138.193 76.4419 137.466 76.4419 136.59C76.4419 135.513 76.8395 134.686 77.6348 134.11C78.4363 133.534 79.5917 133.243 81.1008 133.237H82.35V132.654C82.35 132.184 82.2279 131.809 81.9837 131.527C81.7458 131.245 81.3669 131.104 80.8472 131.104C80.39 131.104 80.03 131.214 79.767 131.433C79.5102 131.652 79.3819 131.953 79.3819 132.335H76.6673C76.6673 131.746 76.8489 131.201 77.2121 130.7C77.5753 130.199 78.0888 129.808 78.7526 129.526C79.4163 129.238 80.1615 129.094 80.9881 129.094C82.2405 129.094 83.233 129.41 83.9656 130.043C84.7045 130.669 85.074 131.552 85.074 132.692V137.097C85.0802 138.061 85.2149 138.791 85.4779 139.286V139.445H82.7351ZM80.4902 137.557C80.891 137.557 81.2605 137.47 81.5986 137.294C81.9367 137.113 82.1872 136.872 82.35 136.571V134.824H81.3356C79.9768 134.824 79.2535 135.294 79.1658 136.233L79.1564 136.393C79.1564 136.731 79.2754 137.009 79.5134 137.228C79.7513 137.448 80.077 137.557 80.4902 137.557Z" fill="#00C2AD"/>
<path d="M89.6577 129.282L89.7423 130.456C90.4686 129.548 91.4424 129.094 92.6635 129.094C93.7405 129.094 94.542 129.41 95.068 130.043C95.594 130.675 95.8633 131.621 95.8758 132.88V139.445H93.1613V132.945C93.1613 132.369 93.036 131.953 92.7856 131.696C92.5351 131.433 92.1187 131.302 91.5363 131.302C90.7724 131.302 90.1994 131.627 89.8174 132.278V139.445H87.1029V129.282H89.6577Z" fill="#00C2AD"/>
<path d="M101.634 135.369L100.657 136.346V139.445H97.9423V125.018H100.657V133.011L101.183 132.335L103.785 129.282H107.044L103.371 133.518L107.363 139.445H104.245L101.634 135.369Z" fill="#00C2AD"/>
<path d="M117.902 131.931L120.748 125.769H123.829L119.339 134.486V139.445H116.474V134.486L111.985 125.769H115.075L117.902 131.931Z" fill="#00C2AD"/>
<path d="M123.857 134.27C123.857 133.262 124.051 132.363 124.44 131.574C124.828 130.785 125.385 130.174 126.112 129.742C126.844 129.31 127.693 129.094 128.657 129.094C130.028 129.094 131.146 129.514 132.01 130.353C132.881 131.192 133.366 132.332 133.466 133.772L133.485 134.467C133.485 136.026 133.05 137.279 132.179 138.224C131.309 139.163 130.141 139.633 128.676 139.633C127.211 139.633 126.04 139.163 125.163 138.224C124.293 137.285 123.857 136.007 123.857 134.392V134.27ZM126.572 134.467C126.572 135.431 126.753 136.17 127.117 136.684C127.48 137.191 128 137.445 128.676 137.445C129.333 137.445 129.847 137.194 130.216 136.693C130.586 136.186 130.771 135.378 130.771 134.27C130.771 133.324 130.586 132.592 130.216 132.072C129.847 131.552 129.327 131.292 128.657 131.292C127.993 131.292 127.48 131.552 127.117 132.072C126.753 132.585 126.572 133.384 126.572 134.467Z" fill="#00C2AD"/>
<path d="M141.244 138.412C140.574 139.226 139.647 139.633 138.463 139.633C137.374 139.633 136.541 139.32 135.965 138.694C135.395 138.068 135.104 137.15 135.091 135.942V129.282H137.806V135.848C137.806 136.906 138.288 137.435 139.252 137.435C140.173 137.435 140.805 137.116 141.15 136.477V129.282H143.874V139.445H141.319L141.244 138.412Z" fill="#00C2AD"/>
<path d="M148.683 135.247H146.429L146.109 125.769H149.002L148.683 135.247ZM147.556 136.731C148.013 136.731 148.379 136.865 148.655 137.135C148.936 137.404 149.077 137.748 149.077 138.168C149.077 138.581 148.936 138.922 148.655 139.192C148.379 139.461 148.013 139.596 147.556 139.596C147.105 139.596 146.738 139.461 146.457 139.192C146.181 138.922 146.043 138.581 146.043 138.168C146.043 137.754 146.181 137.413 146.457 137.144C146.738 136.868 147.105 136.731 147.556 136.731Z" fill="#00C2AD"/>
</svg>
